Hw04
…
Reshaping and Aggregation

Activity 3: Mean of life expectancy by continent by year, reshape to have own row per year, one variable per continent

Our first task is to use dplyr functions so all we have remaining is the continent, year and mean life expectancy columns. To do this we first group by continent and year, and then use the summarize function to find the mean life expectancy by year by continent.

a3 <- gapminder %>%
  group_by(continent, year) %>% 
  summarize(meanLE=mean(lifeExp))
a3

## # A tibble: 60 x 3
## # Groups:   continent [?]
##    continent  year   meanLE
##       <fctr> <int>    <dbl>
##  1    Africa  1952 39.13550
##  2    Africa  1957 41.26635
##  3    Africa  1962 43.31944
##  4    Africa  1967 45.33454
##  5    Africa  1972 47.45094
##  6    Africa  1977 49.58042
##  7    Africa  1982 51.59287
##  8    Africa  1987 53.34479
##  9    Africa  1992 53.62958
## 10    Africa  1997 53.59827
## # ... with 50 more rows
…
