…
***
### Reshaping and Aggregation
#### Activity 3: Mean of life expectancy by continent by year, reshape to have own row per year, one variable per continent
Our first task is to use dplyr functions so all we have remaining is the continent, year and mean life expectancy columns.  To do this we first group by continent and year, and then use the summarize function to find the mean life expectancy by year by continent.


```r
a3 <- gapminder %>%
  group_by(continent, year) %>% 
  summarize(meanLE=mean(lifeExp))
a3
```

```
## # A tibble: 60 x 3
## # Groups:   continent [?]
##    continent  year   meanLE
##       <fctr> <int>    <dbl>
##  1    Africa  1952 39.13550
##  2    Africa  1957 41.26635
##  3    Africa  1962 43.31944
##  4    Africa  1967 45.33454
##  5    Africa  1972 47.45094
##  6    Africa  1977 49.58042
##  7    Africa  1982 51.59287
##  8    Africa  1987 53.34479
##  9    Africa  1992 53.62958
## 10    Africa  1997 53.59827
## # ... with 50 more rows
```
…
```r
anti_join(gapminder,df2, by="country")
```

```
## Warning: Column `country` joining factor and character vector, coercing
## into character vector
```

```
## # A tibble: 348 x 6
##    country continent  year lifeExp    pop gdpPercap
##     <fctr>    <fctr> <int>   <dbl>  <int>     <dbl>
##  1 Comoros    Africa  1952  40.715 153936  1102.991
##  2 Comoros    Africa  1957  42.460 170928  1211.149
##  3 Comoros    Africa  1962  44.467 191689  1406.648
##  4 Comoros    Africa  1967  46.472 217378  1876.030
##  5 Comoros    Africa  1972  48.944 250027  1937.578
##  6 Comoros    Africa  1977  50.939 304739  1172.603
##  7 Comoros    Africa  1982  52.933 348643  1267.100
##  8 Comoros    Africa  1987  54.926 395114  1315.981
##  9 Comoros    Africa  1992  57.939 454429  1246.907
## 10 Comoros    Africa  1997  60.660 527982  1173.618
## # ... with 338 more rows
```
…
```r
inner_join(gapminder, df2, by="country")
```

```
## Warning: Column `country` joining factor and character vector, coercing
## into character vector
```

```
## # A tibble: 1,356 x 9
##        country continent  year lifeExp      pop gdpPercap Capital Latitude
##          <chr>    <fctr> <int>   <dbl>    <int>     <dbl>   <chr>    <chr>
##  1 Afghanistan      Asia  1952  28.801  8425333  779.4453   Kabul   34.28N
##  2 Afghanistan      Asia  1957  30.332  9240934  820.8530   Kabul   34.28N
##  3 Afghanistan      Asia  1962  31.997 10267083  853.1007   Kabul   34.28N
##  4 Afghanistan      Asia  1967  34.020 11537966  836.1971   Kabul   34.28N
##  5 Afghanistan      Asia  1972  36.088 13079460  739.9811   Kabul   34.28N
##  6 Afghanistan      Asia  1977  38.438 14880372  786.1134   Kabul   34.28N
##  7 Afghanistan      Asia  1982  39.854 12881816  978.0114   Kabul   34.28N
##  8 Afghanistan      Asia  1987  40.822 13867957  852.3959   Kabul   34.28N
##  9 Afghanistan      Asia  1992  41.674 16317921  649.3414   Kabul   34.28N
## 10 Afghanistan      Asia  1997  41.763 22227415  635.3414   Kabul   34.28N
## # ... with 1,346 more rows, and 1 more variables: Longitude <chr>
```
…
```r
full_join(gapminder, df2, by="country")
```

```
## Warning: Column `country` joining factor and character vector, coercing
## into character vector
```

```
## # A tibble: 1,791 x 9
##        country continent  year lifeExp      pop gdpPercap Capital Latitude
##          <chr>    <fctr> <int>   <dbl>    <int>     <dbl>   <chr>    <chr>
##  1 Afghanistan      Asia  1952  28.801  8425333  779.4453   Kabul   34.28N
##  2 Afghanistan      Asia  1957  30.332  9240934  820.8530   Kabul   34.28N
##  3 Afghanistan      Asia  1962  31.997 10267083  853.1007   Kabul   34.28N
##  4 Afghanistan      Asia  1967  34.020 11537966  836.1971   Kabul   34.28N
##  5 Afghanistan      Asia  1972  36.088 13079460  739.9811   Kabul   34.28N
##  6 Afghanistan      Asia  1977  38.438 14880372  786.1134   Kabul   34.28N
##  7 Afghanistan      Asia  1982  39.854 12881816  978.0114   Kabul   34.28N
##  8 Afghanistan      Asia  1987  40.822 13867957  852.3959   Kabul   34.28N
##  9 Afghanistan      Asia  1992  41.674 16317921  649.3414   Kabul   34.28N
## 10 Afghanistan      Asia  1997  41.763 22227415  635.3414   Kabul   34.28N
## # ... with 1,781 more rows, and 1 more variables: Longitude <chr>
```
…
