…
```r
z= gapminder %>% 
  filter(country %in% c("Canada", "Ireland")) %>% 
  select (country, year, gdpPercap)
```

```r
z
```

```
## # A tibble: 24 x 3
##    country  year gdpPercap
##     <fctr> <int>     <dbl>
##  1  Canada  1952  11367.16
##  2  Canada  1957  12489.95
##  3  Canada  1962  13462.49
##  4  Canada  1967  16076.59
##  5  Canada  1972  18970.57
##  6  Canada  1977  22090.88
##  7  Canada  1982  22898.79
##  8  Canada  1987  26626.52
##  9  Canada  1992  26342.88
## 10  Canada  1997  28954.93
## # ... with 14 more rows
```
…
***
####Utilizing more dplyr functions
#####To utilize and learn more about dplyr functions I asked the following question and tried to work backward to find the data: What country experienced the sharpest 5-year increase in population?
######First I created a copy of gapminder so I could make changes to the tibble without effecting the data in the package

```r
edit_gap <- gapminder
```

```r
edit_gap
```

```
## # A tibble: 1,704 x 6
##        country continent  year lifeExp      pop gdpPercap
##         <fctr>    <fctr> <int>   <dbl>    <int>     <dbl>
##  1 Afghanistan      Asia  1952  28.801  8425333  779.4453
##  2 Afghanistan      Asia  1957  30.332  9240934  820.8530
##  3 Afghanistan      Asia  1962  31.997 10267083  853.1007
##  4 Afghanistan      Asia  1967  34.020 11537966  836.1971
##  5 Afghanistan      Asia  1972  36.088 13079460  739.9811
##  6 Afghanistan      Asia  1977  38.438 14880372  786.1134
##  7 Afghanistan      Asia  1982  39.854 12881816  978.0114
##  8 Afghanistan      Asia  1987  40.822 13867957  852.3959
##  9 Afghanistan      Asia  1992  41.674 16317921  649.3414
## 10 Afghanistan      Asia  1997  41.763 22227415  635.3414
## # ... with 1,694 more rows
```
…
```r
s1<- edit_gap %>%
  select (country, year, continent, pop) %>% 
  group_by(continent, country)
```


```r
s1
```

```
## # A tibble: 1,704 x 4
## # Groups:   continent, country [142]
##        country  year continent      pop
##         <fctr> <int>    <fctr>    <int>
##  1 Afghanistan  1952      Asia  8425333
##  2 Afghanistan  1957      Asia  9240934
##  3 Afghanistan  1962      Asia 10267083
##  4 Afghanistan  1967      Asia 11537966
##  5 Afghanistan  1972      Asia 13079460
##  6 Afghanistan  1977      Asia 14880372
##  7 Afghanistan  1982      Asia 12881816
##  8 Afghanistan  1987      Asia 13867957
##  9 Afghanistan  1992      Asia 16317921
## 10 Afghanistan  1997      Asia 22227415
## # ... with 1,694 more rows
```
#####Next I want to use mutate to make a new data point which will tell me how pop changed by year ((pop in year i)- (pop in year i - 1). This will mean that positive numbers will indicate that the population went up.  I am using the lag function which finds the change based on the datapoint before the point in question (eg. x - (x-1))


```r
s2<- s1 %>% 
  mutate(pop_delta = pop -lag(pop))
```


```r
s2
```

```
## # A tibble: 1,704 x 5
## # Groups:   continent, country [142]
##        country  year continent      pop pop_delta
##         <fctr> <int>    <fctr>    <int>     <int>
##  1 Afghanistan  1952      Asia  8425333        NA
##  2 Afghanistan  1957      Asia  9240934    815601
##  3 Afghanistan  1962      Asia 10267083   1026149
##  4 Afghanistan  1967      Asia 11537966   1270883
##  5 Afghanistan  1972      Asia 13079460   1541494
##  6 Afghanistan  1977      Asia 14880372   1800912
##  7 Afghanistan  1982      Asia 12881816  -1998556
##  8 Afghanistan  1987      Asia 13867957    986141
##  9 Afghanistan  1992      Asia 16317921   2449964
## 10 Afghanistan  1997      Asia 22227415   5909494
## # ... with 1,694 more rows
```
#####Next I want to retain the best pop change, which means the biggest value that is positive. For this I use the summarize function and the max function.  To exclude any missing numbers from the analysis I am using "na.rm= TRUE"


```r
s3 <- s2 %>% 
  summarize(best_pop_delta = max(pop_delta, na.rm = TRUE))
```


```r
s3
```

```
## # A tibble: 142 x 3
## # Groups:   continent [?]
##    continent                  country best_pop_delta
##       <fctr>                   <fctr>          <dbl>
##  1    Africa                  Algeria        3221203
##  2    Africa                   Angola        1554370
##  3    Africa                    Benin        1084409
##  4    Africa                 Botswana         193922
##  5    Africa             Burkina Faso        2074994
##  6    Africa                  Burundi        1369427
##  7    Africa                 Cameroon        1766305
##  8    Africa Central African Republic         431389
##  9    Africa                     Chad        1403068
## 10    Africa                  Comoros          96578
## # ... with 132 more rows
```

#####Arrange in descending order


```r
s3 %>% 
  arrange (desc(best_pop_delta))
```

```
## # A tibble: 142 x 3
## # Groups:   continent [5]
##    continent          country best_pop_delta
##       <fctr>           <fctr>          <dbl>
##  1      Asia            China      107480000
##  2      Asia            India       87000000
##  3      Asia         Pakistan       17838690
##  4      Asia        Indonesia       16618000
##  5  Americas    United States       16017571
##  6    Africa          Nigeria       15129890
##  7      Asia       Bangladesh       14791549
##  8  Americas           Brazil       14648988
##  9    Africa Congo, Dem. Rep.        9226907
## 10    Africa         Ethiopia        9089029
## # ... with 132 more rows
```
…
